2.7517824057221754
3.652113186804911
3.8089968611562792
6.197793786980704
7.053260451484336
7.154025920935478
7.847110451474929
8.806774066415485
9.10032849211569
9.275467535167955
12.356525093402027
12.984249024942391
13.54314441699579
14.327386580015057
14.382516051772692
14.702729956196318
17.46915253784122
17.58440942962243
18.34269119498808
18.511401695167354
19.650440407773168
20.04934329227312
20.09873999526183
20.215895830019488
22.03461300015229
24.238991014483183
24.613715405598832
25.125280822144823
25.467046309068856
25.539344533230043
26.88824635660276
26.8961573834237
27.173063747994842
28.120872816281025
31.501672579760786
35.275642933664614
35.56318459216077
35.87282439692588
37.48755916934689
37.889301829914
39.966355827385975
39.969564889578955
40.55613250358857
41.208834287106114
41.38092068259151
41.430338660476984
41.69545141948527
45.66175929301388
48.95479018200842
49.112436962784166
50.145979410984175
51.18707131490292
52.5475704877828
53.4907196928567
54.571650163315006
54.61813503883406
54.78363617523139
55.63888558094617
56.830456901635536
58.36706752361533
58.59272792833326
60.424680877036366
60.78923495153505
62.45066373198627
62.81382916493479
63.011804969389544
63.28874542555035
63.85107963916566
64.94128551718178
66.21984853473141
69.37371807015118
70.14189660671065
71.06950541284166
71.65412309098723
71.83588108442247
72.57203668289105
72.68612606920429
75.9062436818149
76.52821274257138
77.02578141749825
78.77626980765439
80.08301219503156
81.44351604095142
81.94531676408776
83.23221765395236
84.09185956702613
87.12834271153082
87.37790946227753
88.8181732902259
89.98178334047368
90.09735943094674
91.28673643004088
91.80805974023501
93.90480531374112
94.45825617883072
95.49255854461404
96.13728132521042
96.5812654653694
98.22317156833451
98.49689951331932
